{
    "name": "Weigher",
    "description": "Weighing mechanism library",
    "keywords": "weigh, balance",
    "authors": [
        {
            "name": "Gudjon Holm Sigurdsson",
            "email": "gudjonholm@gmail.com"
        }
    ],
    "version": "0.2",
    "license": "MIT",
    "repository":
    {
        "type": "git",
        "url": "https://gitlab.com/guttih/food-dispenser.git",
        "branch": "m3"
    },
    "build": {
        "srcFilter": ["+<*.cpp>", "+<*.h>"]
    }
}